{
  "next": "https://pokeapi.co/api/v2/type?offset=1&limit=1",
  "previous": null,
  "count": 21,
  "results": [
    {
      "name": "normal",
      "url": "https://pokeapi.co/api/v2/type/1/"
    }
  ]
}
